…
    ## Rows: 822 Columns: 9
    ## ── Column specification ────────────────────────────────────────────────────────
    ## Delimiter: ","
    ## dbl  (8): prez_gop, gov_gop, sen_gop, rep_gop, prez_dem, gov_dem, sen_dem, r...
    ## date (1): mon
    ## 
    ## ℹ Use `spec()` to retrieve the full column specification for this data.
    ## ℹ Specify the column types or set `show_col_types = FALSE` to quiet this message.

``` r
pols_df
```

    ## # A tibble: 822 × 9
    ##     year month     gov_gop sen_gop rep_gop gov_dem sen_dem rep_dem president
    ##    <int> <ord>       <dbl>   <dbl>   <dbl>   <dbl>   <dbl>   <dbl> <chr>    
    ##  1  1947 January        23      51     253      23      45     198 dem      
    ##  2  1947 February       23      51     253      23      45     198 dem      
    ##  3  1947 March          23      51     253      23      45     198 dem      
    ##  4  1947 April          23      51     253      23      45     198 dem      
    ##  5  1947 May            23      51     253      23      45     198 dem      
    ##  6  1947 June           23      51     253      23      45     198 dem      
    ##  7  1947 July           23      51     253      23      45     198 dem      
    ##  8  1947 August         23      51     253      23      45     198 dem      
    ##  9  1947 September      23      51     253      23      45     198 dem      
    ## 10  1947 October        23      51     253      23      45     198 dem      
    ## # ℹ 812 more rows
…
    ## Rows: 787 Columns: 2
    ## ── Column specification ────────────────────────────────────────────────────────
    ## Delimiter: ","
    ## chr (1): date
    ## dbl (1): close
    ## 
    ## ℹ Use `spec()` to retrieve the full column specification for this data.
    ## ℹ Specify the column types or set `show_col_types = FALSE` to quiet this message.

``` r
snp_df
```

    ## # A tibble: 787 × 3
    ##     year month     close
    ##    <dbl> <ord>     <dbl>
    ##  1  1950 January    17.0
    ##  2  1950 February   17.2
    ##  3  1950 March      17.3
    ##  4  1950 April      18.0
    ##  5  1950 May        18.8
    ##  6  1950 June       17.7
    ##  7  1950 July       17.8
    ##  8  1950 August     18.4
    ##  9  1950 September  19.5
    ## 10  1950 October    19.5
    ## # ℹ 777 more rows
…
    ## Rows: 68 Columns: 13
    ## ── Column specification ────────────────────────────────────────────────────────
    ## Delimiter: ","
    ## dbl (13): Year, Jan, Feb, Mar, Apr, May, Jun, Jul, Aug, Sep, Oct, Nov, Dec
    ## 
    ## ℹ Use `spec()` to retrieve the full column specification for this data.
    ## ℹ Specify the column types or set `show_col_types = FALSE` to quiet this message.

``` r
unemployment_df
```

    ## # A tibble: 816 × 3
    ##     year month     unemployment
    ##    <dbl> <ord>            <dbl>
    ##  1  1948 January            3.4
    ##  2  1948 February           3.8
    ##  3  1948 March              4  
    ##  4  1948 April              3.9
    ##  5  1948 May                3.5
    ##  6  1948 June               3.6
    ##  7  1948 July               3.6
    ##  8  1948 August             3.9
    ##  9  1948 September          3.8
    ## 10  1948 October            3.7
    ## # ℹ 806 more rows

## Merge the three datasets

``` r
merged <-
  inner_join(pols_df,snp_df, by = c("year", "month")) |>
  inner_join(unemployment_df, by = c("year", "month"))|>
  mutate(month = factor(month, levels = month.name, ordered = TRUE))|>
  arrange(year,month)

merged
```

    ## # A tibble: 786 × 11
    ##     year month   gov_gop sen_gop rep_gop gov_dem sen_dem rep_dem president close
    ##    <dbl> <ord>     <dbl>   <dbl>   <dbl>   <dbl>   <dbl>   <dbl> <chr>     <dbl>
    ##  1  1950 January      18      44     177      29      57     269 dem        17.0
    ##  2  1950 Februa…      18      44     177      29      57     269 dem        17.2
    ##  3  1950 March        18      44     177      29      57     269 dem        17.3
    ##  4  1950 April        18      44     177      29      57     269 dem        18.0
    ##  5  1950 May          18      44     177      29      57     269 dem        18.8
    ##  6  1950 June         18      44     177      29      57     269 dem        17.7
    ##  7  1950 July         18      44     177      29      57     269 dem        17.8
    ##  8  1950 August       18      44     177      29      57     269 dem        18.4
    ##  9  1950 Septem…      18      44     177      29      57     269 dem        19.5
    ## 10  1950 October      18      44     177      29      57     269 dem        19.5
    ## # ℹ 776 more rows
    ## # ℹ 1 more variable: unemployment <dbl>
…
``` r
library(tidyverse)
library(readxl)

mr_trash <- read_excel("./trash/202509 Trash Wheel Collection Data.xlsx",
                       sheet = "Mr. Trash Wheel",
                       range = "A2:M709") |>   # skip notes, only data rows/cols
  janitor::clean_names() |>
  drop_na(dumpster) |>                       # delete rows with missind data
  mutate(sports_balls = as.integer(round(sports_balls, 0)),year=as.integer(year))

mr_trash
```

    ## # A tibble: 707 × 13
    ##    dumpster month  year date                weight_tons volume_cubic_yards
    ##       <dbl> <chr> <int> <dttm>                    <dbl>              <dbl>
    ##  1        1 May    2014 2014-05-16 00:00:00        4.31                 18
    ##  2        2 May    2014 2014-05-16 00:00:00        2.74                 13
    ##  3        3 May    2014 2014-05-16 00:00:00        3.45                 15
    ##  4        4 May    2014 2014-05-17 00:00:00        3.1                  15
    ##  5        5 May    2014 2014-05-17 00:00:00        4.06                 18
    ##  6        6 May    2014 2014-05-20 00:00:00        2.71                 13
    ##  7        7 May    2014 2014-05-21 00:00:00        1.91                  8
    ##  8        8 May    2014 2014-05-28 00:00:00        3.7                  16
    ##  9        9 June   2014 2014-06-05 00:00:00        2.52                 14
    ## 10       10 June   2014 2014-06-11 00:00:00        3.76                 18
    ## # ℹ 697 more rows
    ## # ℹ 7 more variables: plastic_bottles <dbl>, polystyrene <dbl>,
    ## #   cigarette_butts <dbl>, glass_bottles <dbl>, plastic_bags <dbl>,
    ## #   wrappers <dbl>, sports_balls <int>

## Professor Trash Wheel

``` r
prof_trash <- read_excel("./trash/202509 Trash Wheel Collection Data.xlsx",
                         sheet = "Professor Trash Wheel",
                         range = "A2:M134") |>
  janitor::clean_names() |>
  drop_na(dumpster) |>
  mutate(year=as.integer(year))

prof_trash
```

    ## # A tibble: 132 × 13
    ##    dumpster month     year date                weight_tons volume_cubic_yards
    ##       <dbl> <chr>    <int> <dttm>                    <dbl>              <dbl>
    ##  1        1 January   2017 2017-01-02 00:00:00        1.79                 15
    ##  2        2 January   2017 2017-01-30 00:00:00        1.58                 15
    ##  3        3 February  2017 2017-02-26 00:00:00        2.32                 18
    ##  4        4 February  2017 2017-02-26 00:00:00        3.72                 15
    ##  5        5 February  2017 2017-02-28 00:00:00        1.45                 15
    ##  6        6 March     2017 2017-03-30 00:00:00        1.71                 15
    ##  7        7 April     2017 2017-04-01 00:00:00        1.82                 15
    ##  8        8 April     2017 2017-04-20 00:00:00        2.37                 15
    ##  9        9 May       2017 2017-05-10 00:00:00        2.64                 15
    ## 10       10 May       2017 2017-05-26 00:00:00        2.78                 15
    ## # ℹ 122 more rows
    ## # ℹ 7 more variables: plastic_bottles <dbl>, polystyrene <dbl>,
    ## #   cigarette_butts <dbl>, glass_bottles <dbl>, plastic_bags <dbl>,
    ## #   wrappers <dbl>, homes_powered <dbl>

## gwynnda

``` r
gwynnda <- read_excel("./trash/202509 Trash Wheel Collection Data.xlsx",
                      sheet = "Gwynns Falls Trash Wheel",
                      range = "A2:L351") |>
  janitor::clean_names() |>
  drop_na(dumpster) |>
  mutate(year=as.integer(year))
gwynnda
```

    ## # A tibble: 349 × 12
    ##    dumpster month   year date                weight_tons volume_cubic_yards
    ##       <dbl> <chr>  <int> <dttm>                    <dbl>              <dbl>
    ##  1        1 July    2021 2021-07-03 00:00:00        0.93                 15
    ##  2        2 July    2021 2021-07-07 00:00:00        2.26                 15
    ##  3        3 July    2021 2021-07-07 00:00:00        1.62                 15
    ##  4        4 July    2021 2021-07-16 00:00:00        1.76                 15
    ##  5        5 July    2021 2021-07-30 00:00:00        1.53                 15
    ##  6        6 August  2021 2021-08-11 00:00:00        2.06                 15
    ##  7        7 August  2021 2021-08-14 00:00:00        1.9                  15
    ##  8        8 August  2021 2021-08-16 00:00:00        2.16                 15
    ##  9        9 August  2021 2021-08-16 00:00:00        2.6                  15
    ## 10       10 August  2021 2021-08-17 00:00:00        3.21                 15
    ## # ℹ 339 more rows
    ## # ℹ 6 more variables: plastic_bottles <dbl>, polystyrene <dbl>,
    ## #   cigarette_butts <dbl>, plastic_bags <dbl>, wrappers <dbl>,
    ## #   homes_powered <dbl>

## combine datasets

``` r
mr_trash<-mr_trash|>mutate(wheel="Mr Trash Wheel")
prof_trash<-prof_trash|>mutate(wheel="Professor Trash Wheel")
gwynnda<-gwynnda|>mutate(wheel="Gwynnda")
trash_wheels<-bind_rows(mr_trash,prof_trash,gwynnda)

library(dplyr)

trash_wheels
```

    ## # A tibble: 1,188 × 15
    ##    dumpster month  year date                weight_tons volume_cubic_yards
    ##       <dbl> <chr> <int> <dttm>                    <dbl>              <dbl>
    ##  1        1 May    2014 2014-05-16 00:00:00        4.31                 18
    ##  2        2 May    2014 2014-05-16 00:00:00        2.74                 13
    ##  3        3 May    2014 2014-05-16 00:00:00        3.45                 15
    ##  4        4 May    2014 2014-05-17 00:00:00        3.1                  15
    ##  5        5 May    2014 2014-05-17 00:00:00        4.06                 18
    ##  6        6 May    2014 2014-05-20 00:00:00        2.71                 13
    ##  7        7 May    2014 2014-05-21 00:00:00        1.91                  8
    ##  8        8 May    2014 2014-05-28 00:00:00        3.7                  16
    ##  9        9 June   2014 2014-06-05 00:00:00        2.52                 14
    ## 10       10 June   2014 2014-06-11 00:00:00        3.76                 18
    ## # ℹ 1,178 more rows
    ## # ℹ 9 more variables: plastic_bottles <dbl>, polystyrene <dbl>,
    ## #   cigarette_butts <dbl>, glass_bottles <dbl>, plastic_bags <dbl>,
    ## #   wrappers <dbl>, sports_balls <int>, wheel <chr>, homes_powered <dbl>
…
